"VertexlitGeneric"
{
	"$basetexture" "models/vtalanov98old/hartnell/1963"
	"$bumpmap" "models/vtalanov98old/hartnell/1963n"
	"$normalmap" "models/vtalanov98old/hartnell/1963n"
	"$surfaceprop" "Wood_Solid"
}
