"VertexlitGeneric"
{
	"$basetexture" "models/vtalanov98old/hartnell/details2"
	"$bumpmap" "models/vtalanov98old/hartnell/details2n"
	"$normalmap" "models/vtalanov98old/hartnell/details2n"
	"$surfaceprop" "Metal"
}
