"VertexlitGeneric"
{
	"$basetexture" "models/vtalanov98old/hartnell/policeboxsign"
	"$surfaceprop" "Metal"
	"$translucent" 1
	"$nodecal" "1"
	"$selfillummask" "models/vtalanov98old/hartnell/white"
	"$selfillum" 1
	"$envmap" env_cubemap
	"$envmaptint" "[0.5 0.5 0.5]"
}
