"VertexlitGeneric"
{
	"$basetexture" "models/vtalanov98old/hartnell/roundels"
	"$bumpmap" "models/vtalanov98old/hartnell/roundelsn"
	"$normalmap" "models/vtalanov98old/hartnell/roundelsn"
	"$surfaceprop" "Metal"
}
