"VertexlitGeneric"
{
	"$basetexture" "models/vtalanov98old/tennantsonic/emmiter"
	"$bumpmap" "models/vtalanov98old/tennantsonic/emmiter"
	"$normalmap" "models/vtalanov98old/tennantsonic/emmiter"
	"$surfaceprop" "Wood_Solid"
	"$selfillummask" "models/vtalanov98old/tennantsonic/white"
	"$selfillum" 1
	"$envmap" env_cubemap
	"$envmaptint" "[0.5 0.5 0.5]"
}
