"VertexlitGeneric"
{
	"$basetexture" "models/weapons/cem111333/sonic/emitter"
	"$envmap" "models/weapons/cem111333/sonic/environment"
	"$envmaptint" "[0.2 0.5 0.2]"
	"$nodecal" "1"
	"$selfillum" "1"
        "$selfillummask" "models/weapons/cem111333/sonic/white"
	"$surfaceprop" "Metal"
}
