"VertexlitGeneric"
{
	"$basetexture" "models/doctorwho1200/capaldisonic/emmiter"
	"$surfaceprop" "Metal"
	"$nodecal" "1"
	"$selfillum" 1
        "$selfillummask" "models/doctorwho1200/capaldisonic/white"
		"Proxies"
		{
			"AnimatedTexture"
				{
					"animatedTextureVar" "$basetexture"
					"animatedTextureFrameNumVar" "$frame"
					"animatedTextureFrameRate" "15"
				}
		}
}
