"VertexlitGeneric"
{
	"$basetexture" "models/vtalanov98old/toyota/2015"
	"$bumpmap" "models/vtalanov98old/toyota/2015n"
	"$normalmap" "models/vtalanov98old/toyota/2015n"
	"$surfaceprop" "Glass"
	"$selfillum" 1
        "$selfillummask" "models/vtalanov98old/toyota/white"
	"$envmap" "models/vtalanov98old/toyota/environment"
	"$envmaptint" "[0.5 0.5 0.5]"
	"$nodecal" "1"
}
