"VertexlitGeneric"
{
	"$basetexture" "models/vtalanov98old/toyota/2015snow"
	"$bumpmap" "models/vtalanov98old/toyota/2015n"
	"$normalmap" "models/vtalanov98old/toyota/2015n"
	"$surfaceprop" "Wood_Solid"
	"$nodecal" "1"
}
