"VertexlitGeneric"
{
	"$basetexture" "models/vtalanov98old/toyota/hullstruts"
	"$surfaceprop" "Metal"
	"$nodecal" "1"
	"$envmap" "models/vtalanov98old/toyota/environment"
	"$envmaptint" "[0.5 0.5 0.5]"
}
