"VertexlitGeneric"
{
	"$basetexture" "models/vtalanov98old/toyota/telepathic"
	"$surfaceprop" "Flesh"
	"$nodecal" "1"
        "$selfillum" 1
        "$selfillummask" "models/vtalanov98old/toyota/white"
}
