"VertexlitGeneric"
{
	"$basetexture" "models/cem111333/capaldi1/2014"
	"$bumpmap" "models/cem111333/capaldi1/2014n"
	"$normalmap" "models/cem111333/capaldi1/2014n"
	"$surfaceprop" "Glass"
	"$selfillum" 1
        "$selfillummask" "models/cem111333/capaldi1/white"
	
	"$nodecal" "1"
}
