"VertexLitGeneric"
{
	"$basetexture" "models/cem111333/capaldi1/catwalklightsstaticred"
	"$selfillum" 1
        "$selfillummask" "models/cem111333/capaldi1/white"
	"$nodecal" "1"
		"Proxies"
		{
			"AnimatedTexture"
				{
					"animatedTextureVar" "$basetexture"
					"animatedTextureFrameNumVar" "$frame"
					"animatedTextureFrameRate" "35"
				}
		}
}