"VertexlitGeneric"
{
	"$additive" 1
	"$basetexture" "models/cem111333/capaldi1/consoleglasscap"
	"$surfaceprop" "Glass"
	"$selfillum" 1
        "$selfillummask" "models/cem111333/capaldi1/white"
	"$translucent" 1
	
	"$nodecal" "1"
}