"VertexlitGeneric"
{
	"$basetexture" "models/cem111333/capaldi1/doorlred"
	"$surfaceprop" "Glass"
	"$selfillum" 1
        "$selfillummask" "models/cem111333/capaldi1/white"
	"$envmap" "models/cem111333/capaldi1/environment"
	"$envmaptint" "[0.5 0.5 0.5]"
	"$nodecal" "1"
}
