"VertexlitGeneric"
{
	"$basetexture" "models/cem111333/capaldi1/policeboxsign"
	"$surfaceprop" "Glass"
	"$selfillum" 1
        "$selfillummask" "models/cem111333/capaldi1/white"
	"$envmap" "models/cem111333/capaldi1/environment"
	"$envmaptint" "[0.8 0.8 0.8]"
	"$nodecal" "1"
}
