"VertexlitGeneric"
{
	"$basetexture" "models/cem111333/capaldi1/roundelstonered"
	"$surfaceprop" "Flesh"
	"$nodecal" "1"
        "$selfillum" 1
        "$selfillummask" "models/cem111333/capaldi1/white"