"VertexlitGeneric"
{
	"$basetexture" "models/cem111333/capaldi1/windows2"
	"$bumpmap" "models/cem111333/capaldi1/windowsn"
	"$normalmap" "models/cem111333/capaldi1/windowsn"
	"$surfaceprop" "Glass"
	"$selfillum" 1
        "$selfillummask" "models/cem111333/capaldi1/white"
	"$envmap" "models/cem111333/capaldi1/environment"
	"$envmaptint" "[0.8 0.8 0.8]"
	"$nodecal" "1"
}