"VertexlitGeneric"
{
	"$basetexture" "models/vtalanov98old/copper/bluepanel"
	"$bumpmap" "models/vtalanov98old/copper/metalpanel_n"
	"$normalmap" "models/vtalanov98old/copper/metalpanel_n"
	"$surfaceprop" "Metal"
}
