"VertexlitGeneric"
{
	"$basetexture" "models/vtalanov98old/copper/chair"
	"$bumpmap" "models/vtalanov98old/copper/chair_n"
	"$normalmap" "models/vtalanov98old/copper/chair_n"
	"$surfaceprop" "Flesh"
}
