"VertexlitGeneric"
{
	"$basetexture" "models/vtalanov98old/copper/glass"
	"$nodecal" "1"
	"$translucent" 1
	"$additive" 1
	"$phong" 1
	"$phongboost" "1"
	"$phongexponent" 70
	"$phongfresnelranges" "[0.04 1 1]"
	"$envmap" env_cubemap
	"$envmaptint" "[0.6 0.3 0]"
        "$nocull" "1"
}