"VertexlitGeneric"
{
	"$basetexture" "models/vtalanov98old/copper/policeboxsign"
	"$surfaceprop" "Wood_Solid"
	"$selfillummask" "models/vtalanov98old/copper/white"
	"$selfillum" 1
	"$envmap" env_cubemap
	"$envmaptint" "[0.5 0.5 0.5]"
}
