"VertexlitGeneric"
{
	"$basetexture" "models/vtalanov98old/copper/roundels"
	"$surfaceprop" "Metal"
               "Proxies"
                {
                  "AnimatedTexture"
                  {
                             "animatedtexturevar" "$basetexture"
                             "animatedtextureframenumvar" "$frame"
                             "animatedtextureframerate" "15"
                  }
                }
	"$nodecal" "1"
}